﻿# Tiled2Unity generated file. Do not modify by hand.
# Wavefront file for 'PlayerHouse_mesh_0007.obj'

# Vertices (Count = 4)
v -15 -6 0
v -16 -6 0
v -16 -5 0
v -15 -5 0

# Texture cooridinates (Count = 4)
vt 0.05 0.96
vt 0.075 0.96
vt 0.075 1
vt 0.05 1

# Normal
vn 0 0 -1

# Mesh description
g PlayerHouse_mesh_0007

# Faces
f 1/1/1 2/2/1 3/3/1 4/4/1

