﻿# Tiled2Unity generated file. Do not modify by hand.
# Wavefront file for 'PlayerHouse_mesh_0011.obj'

# Vertices (Count = 28)
v -15 -1 0
v -16 -1 0
v -16 0 0
v -15 0 0
v -15 -2 0
v -16 -2 0
v -16 -1 0
v -15 -1 0
v -15 -3 0
v -16 -3 0
v -16 -2 0
v -15 -2 0
v -14 -5 0
v -15 -5 0
v -15 -4 0
v -14 -4 0
v -14 -6 0
v -15 -6 0
v -15 -5 0
v -14 -5 0
v -15 -6 0
v -16 -6 0
v -16 -5 0
v -15 -5 0
v -15 -7 0
v -16 -7 0
v -16 -6 0
v -15 -6 0

# Texture cooridinates (Count = 23)
vt 0.375 0.76
vt 0.4 0.76
vt 0.4 0.8
vt 0.375 0.8
vt 0.25 0.92
vt 0.275 0.92
vt 0.275 0.96
vt 0.25 0.96
vt 0.25 0.84
vt 0.275 0.84
vt 0.275 0.88
vt 0.25 0.88
vt 0.075 0.92
vt 0.1 0.92
vt 0.1 0.96
vt 0.075 0.96
vt 0.125 0.92
vt 0.125 0.96
vt 0.225 0.8
vt 0.25 0.8
vt 0.225 0.84
vt 0.225 0.76
vt 0.25 0.76

# Normal
vn 0 0 -1

# Mesh description
g PlayerHouse_mesh_0011

# Faces
f 1/1/1 2/2/1 3/3/1 4/4/1
f 5/5/1 6/6/1 7/7/1 8/8/1
f 9/9/1 10/10/1 11/11/1 12/12/1
f 13/13/1 14/14/1 15/15/1 16/16/1
f 17/14/1 18/17/1 19/18/1 20/15/1
f 21/19/1 22/20/1 23/9/1 24/21/1
f 25/22/1 26/23/1 27/20/1 28/19/1

