﻿# Tiled2Unity generated file. Do not modify by hand.
# Wavefront file for 'PlayerHouse_mesh_0005.obj'

# Vertices (Count = 4)
v -15 -14 0
v -16 -14 0
v -16 -13 0
v -15 -13 0

# Texture cooridinates (Count = 4)
vt 0.05 0.88
vt 0.075 0.88
vt 0.075 0.92
vt 0.05 0.92

# Normal
vn 0 0 -1

# Mesh description
g PlayerHouse_mesh_0005

# Faces
f 1/1/1 2/2/1 3/3/1 4/4/1

