﻿# Tiled2Unity generated file. Do not modify by hand.
# Wavefront file for 'Grass-tileset_mesh_0001.obj'

# Vertices (Count = 400)
v 0 -0.5 0
v -0.5 -0.5 0
v -0.5 0 0
v 0 0 0
v -0.5 -0.5 0
v -1 -0.5 0
v -1 0 0
v -0.5 0 0
v -1 -0.5 0
v -1.5 -0.5 0
v -1.5 0 0
v -1 0 0
v -1.5 -0.5 0
v -2 -0.5 0
v -2 0 0
v -1.5 0 0
v -2 -0.5 0
v -2.5 -0.5 0
v -2.5 0 0
v -2 0 0
v -2.5 -0.5 0
v -3 -0.5 0
v -3 0 0
v -2.5 0 0
v -3 -0.5 0
v -3.5 -0.5 0
v -3.5 0 0
v -3 0 0
v -3.5 -0.5 0
v -4 -0.5 0
v -4 0 0
v -3.5 0 0
v -4 -0.5 0
v -4.5 -0.5 0
v -4.5 0 0
v -4 0 0
v -4.5 -0.5 0
v -5 -0.5 0
v -5 0 0
v -4.5 0 0
v 0 -1 0
v -0.5 -1 0
v -0.5 -0.5 0
v 0 -0.5 0
v -0.5 -1 0
v -1 -1 0
v -1 -0.5 0
v -0.5 -0.5 0
v -1 -1 0
v -1.5 -1 0
v -1.5 -0.5 0
v -1 -0.5 0
v -1.5 -1 0
v -2 -1 0
v -2 -0.5 0
v -1.5 -0.5 0
v -2 -1 0
v -2.5 -1 0
v -2.5 -0.5 0
v -2 -0.5 0
v -2.5 -1 0
v -3 -1 0
v -3 -0.5 0
v -2.5 -0.5 0
v -3 -1 0
v -3.5 -1 0
v -3.5 -0.5 0
v -3 -0.5 0
v -3.5 -1 0
v -4 -1 0
v -4 -0.5 0
v -3.5 -0.5 0
v -4 -1 0
v -4.5 -1 0
v -4.5 -0.5 0
v -4 -0.5 0
v -4.5 -1 0
v -5 -1 0
v -5 -0.5 0
v -4.5 -0.5 0
v 0 -1.5 0
v -0.5 -1.5 0
v -0.5 -1 0
v 0 -1 0
v -0.5 -1.5 0
v -1 -1.5 0
v -1 -1 0
v -0.5 -1 0
v -1 -1.5 0
v -1.5 -1.5 0
v -1.5 -1 0
v -1 -1 0
v -1.5 -1.5 0
v -2 -1.5 0
v -2 -1 0
v -1.5 -1 0
v -2 -1.5 0
v -2.5 -1.5 0
v -2.5 -1 0
v -2 -1 0
v -2.5 -1.5 0
v -3 -1.5 0
v -3 -1 0
v -2.5 -1 0
v -3 -1.5 0
v -3.5 -1.5 0
v -3.5 -1 0
v -3 -1 0
v -3.5 -1.5 0
v -4 -1.5 0
v -4 -1 0
v -3.5 -1 0
v -4 -1.5 0
v -4.5 -1.5 0
v -4.5 -1 0
v -4 -1 0
v -4.5 -1.5 0
v -5 -1.5 0
v -5 -1 0
v -4.5 -1 0
v 0 -2 0
v -0.5 -2 0
v -0.5 -1.5 0
v 0 -1.5 0
v -0.5 -2 0
v -1 -2 0
v -1 -1.5 0
v -0.5 -1.5 0
v -1 -2 0
v -1.5 -2 0
v -1.5 -1.5 0
v -1 -1.5 0
v -1.5 -2 0
v -2 -2 0
v -2 -1.5 0
v -1.5 -1.5 0
v -2 -2 0
v -2.5 -2 0
v -2.5 -1.5 0
v -2 -1.5 0
v -2.5 -2 0
v -3 -2 0
v -3 -1.5 0
v -2.5 -1.5 0
v -3 -2 0
v -3.5 -2 0
v -3.5 -1.5 0
v -3 -1.5 0
v -3.5 -2 0
v -4 -2 0
v -4 -1.5 0
v -3.5 -1.5 0
v -4 -2 0
v -4.5 -2 0
v -4.5 -1.5 0
v -4 -1.5 0
v -4.5 -2 0
v -5 -2 0
v -5 -1.5 0
v -4.5 -1.5 0
v 0 -2.5 0
v -0.5 -2.5 0
v -0.5 -2 0
v 0 -2 0
v -0.5 -2.5 0
v -1 -2.5 0
v -1 -2 0
v -0.5 -2 0
v -1 -2.5 0
v -1.5 -2.5 0
v -1.5 -2 0
v -1 -2 0
v -1.5 -2.5 0
v -2 -2.5 0
v -2 -2 0
v -1.5 -2 0
v -2 -2.5 0
v -2.5 -2.5 0
v -2.5 -2 0
v -2 -2 0
v -2.5 -2.5 0
v -3 -2.5 0
v -3 -2 0
v -2.5 -2 0
v -3 -2.5 0
v -3.5 -2.5 0
v -3.5 -2 0
v -3 -2 0
v -3.5 -2.5 0
v -4 -2.5 0
v -4 -2 0
v -3.5 -2 0
v -4 -2.5 0
v -4.5 -2.5 0
v -4.5 -2 0
v -4 -2 0
v -4.5 -2.5 0
v -5 -2.5 0
v -5 -2 0
v -4.5 -2 0
v 0 -3 0
v -0.5 -3 0
v -0.5 -2.5 0
v 0 -2.5 0
v -0.5 -3 0
v -1 -3 0
v -1 -2.5 0
v -0.5 -2.5 0
v -1 -3 0
v -1.5 -3 0
v -1.5 -2.5 0
v -1 -2.5 0
v -1.5 -3 0
v -2 -3 0
v -2 -2.5 0
v -1.5 -2.5 0
v -2 -3 0
v -2.5 -3 0
v -2.5 -2.5 0
v -2 -2.5 0
v -2.5 -3 0
v -3 -3 0
v -3 -2.5 0
v -2.5 -2.5 0
v -3 -3 0
v -3.5 -3 0
v -3.5 -2.5 0
v -3 -2.5 0
v -3.5 -3 0
v -4 -3 0
v -4 -2.5 0
v -3.5 -2.5 0
v -4 -3 0
v -4.5 -3 0
v -4.5 -2.5 0
v -4 -2.5 0
v -4.5 -3 0
v -5 -3 0
v -5 -2.5 0
v -4.5 -2.5 0
v 0 -3.5 0
v -0.5 -3.5 0
v -0.5 -3 0
v 0 -3 0
v -0.5 -3.5 0
v -1 -3.5 0
v -1 -3 0
v -0.5 -3 0
v -1 -3.5 0
v -1.5 -3.5 0
v -1.5 -3 0
v -1 -3 0
v -1.5 -3.5 0
v -2 -3.5 0
v -2 -3 0
v -1.5 -3 0
v -2 -3.5 0
v -2.5 -3.5 0
v -2.5 -3 0
v -2 -3 0
v -2.5 -3.5 0
v -3 -3.5 0
v -3 -3 0
v -2.5 -3 0
v -3 -3.5 0
v -3.5 -3.5 0
v -3.5 -3 0
v -3 -3 0
v -3.5 -3.5 0
v -4 -3.5 0
v -4 -3 0
v -3.5 -3 0
v -4 -3.5 0
v -4.5 -3.5 0
v -4.5 -3 0
v -4 -3 0
v -4.5 -3.5 0
v -5 -3.5 0
v -5 -3 0
v -4.5 -3 0
v 0 -4 0
v -0.5 -4 0
v -0.5 -3.5 0
v 0 -3.5 0
v -0.5 -4 0
v -1 -4 0
v -1 -3.5 0
v -0.5 -3.5 0
v -1 -4 0
v -1.5 -4 0
v -1.5 -3.5 0
v -1 -3.5 0
v -1.5 -4 0
v -2 -4 0
v -2 -3.5 0
v -1.5 -3.5 0
v -2 -4 0
v -2.5 -4 0
v -2.5 -3.5 0
v -2 -3.5 0
v -2.5 -4 0
v -3 -4 0
v -3 -3.5 0
v -2.5 -3.5 0
v -3 -4 0
v -3.5 -4 0
v -3.5 -3.5 0
v -3 -3.5 0
v -3.5 -4 0
v -4 -4 0
v -4 -3.5 0
v -3.5 -3.5 0
v -4 -4 0
v -4.5 -4 0
v -4.5 -3.5 0
v -4 -3.5 0
v -4.5 -4 0
v -5 -4 0
v -5 -3.5 0
v -4.5 -3.5 0
v 0 -4.5 0
v -0.5 -4.5 0
v -0.5 -4 0
v 0 -4 0
v -0.5 -4.5 0
v -1 -4.5 0
v -1 -4 0
v -0.5 -4 0
v -1 -4.5 0
v -1.5 -4.5 0
v -1.5 -4 0
v -1 -4 0
v -1.5 -4.5 0
v -2 -4.5 0
v -2 -4 0
v -1.5 -4 0
v -2 -4.5 0
v -2.5 -4.5 0
v -2.5 -4 0
v -2 -4 0
v -2.5 -4.5 0
v -3 -4.5 0
v -3 -4 0
v -2.5 -4 0
v -3 -4.5 0
v -3.5 -4.5 0
v -3.5 -4 0
v -3 -4 0
v -3.5 -4.5 0
v -4 -4.5 0
v -4 -4 0
v -3.5 -4 0
v -4 -4.5 0
v -4.5 -4.5 0
v -4.5 -4 0
v -4 -4 0
v -4.5 -4.5 0
v -5 -4.5 0
v -5 -4 0
v -4.5 -4 0
v 0 -5 0
v -0.5 -5 0
v -0.5 -4.5 0
v 0 -4.5 0
v -0.5 -5 0
v -1 -5 0
v -1 -4.5 0
v -0.5 -4.5 0
v -1 -5 0
v -1.5 -5 0
v -1.5 -4.5 0
v -1 -4.5 0
v -1.5 -5 0
v -2 -5 0
v -2 -4.5 0
v -1.5 -4.5 0
v -2 -5 0
v -2.5 -5 0
v -2.5 -4.5 0
v -2 -4.5 0
v -2.5 -5 0
v -3 -5 0
v -3 -4.5 0
v -2.5 -4.5 0
v -3 -5 0
v -3.5 -5 0
v -3.5 -4.5 0
v -3 -4.5 0
v -3.5 -5 0
v -4 -5 0
v -4 -4.5 0
v -3.5 -4.5 0
v -4 -5 0
v -4.5 -5 0
v -4.5 -4.5 0
v -4 -4.5 0
v -4.5 -5 0
v -5 -5 0
v -5 -4.5 0
v -4.5 -4.5 0

# Texture cooridinates (Count = 13)
vt 0 0.9722222
vt 0.025 0.9722222
vt 0.025 1
vt 0 1
vt 0.425 0.1666667
vt 0.45 0.1666667
vt 0.45 0.1944444
vt 0.425 0.1944444
vt 0.475 0.1666667
vt 0.475 0.1944444
vt 0.45 0.1388889
vt 0.475 0.1388889
vt 0.425 0.1388889

# Normal
vn 0 0 -1

# Mesh description
g Grass-tileset_mesh_0001

# Faces
f 1/1/1 2/2/1 3/3/1 4/4/1
f 5/1/1 6/2/1 7/3/1 8/4/1
f 9/1/1 10/2/1 11/3/1 12/4/1
f 13/1/1 14/2/1 15/3/1 16/4/1
f 17/5/1 18/6/1 19/7/1 20/8/1
f 21/5/1 22/6/1 23/7/1 24/8/1
f 25/6/1 26/9/1 27/10/1 28/7/1
f 29/1/1 30/2/1 31/3/1 32/4/1
f 33/1/1 34/2/1 35/3/1 36/4/1
f 37/1/1 38/2/1 39/3/1 40/4/1
f 41/1/1 42/2/1 43/3/1 44/4/1
f 45/1/1 46/2/1 47/3/1 48/4/1
f 49/1/1 50/2/1 51/3/1 52/4/1
f 53/1/1 54/2/1 55/3/1 56/4/1
f 57/5/1 58/6/1 59/7/1 60/8/1
f 61/5/1 62/6/1 63/7/1 64/8/1
f 65/6/1 66/9/1 67/10/1 68/7/1
f 69/1/1 70/2/1 71/3/1 72/4/1
f 73/1/1 74/2/1 75/3/1 76/4/1
f 77/1/1 78/2/1 79/3/1 80/4/1
f 81/1/1 82/2/1 83/3/1 84/4/1
f 85/1/1 86/2/1 87/3/1 88/4/1
f 89/1/1 90/2/1 91/3/1 92/4/1
f 93/1/1 94/2/1 95/3/1 96/4/1
f 97/5/1 98/6/1 99/7/1 100/8/1
f 101/5/1 102/6/1 103/7/1 104/8/1
f 105/6/1 106/9/1 107/10/1 108/7/1
f 109/1/1 110/2/1 111/3/1 112/4/1
f 113/1/1 114/2/1 115/3/1 116/4/1
f 117/1/1 118/2/1 119/3/1 120/4/1
f 121/1/1 122/2/1 123/3/1 124/4/1
f 125/1/1 126/2/1 127/3/1 128/4/1
f 129/1/1 130/2/1 131/3/1 132/4/1
f 133/1/1 134/2/1 135/3/1 136/4/1
f 137/5/1 138/6/1 139/7/1 140/8/1
f 141/5/1 142/6/1 143/7/1 144/8/1
f 145/6/1 146/9/1 147/10/1 148/7/1
f 149/1/1 150/2/1 151/3/1 152/4/1
f 153/1/1 154/2/1 155/3/1 156/4/1
f 157/1/1 158/2/1 159/3/1 160/4/1
f 161/6/1 162/9/1 163/10/1 164/7/1
f 165/6/1 166/9/1 167/10/1 168/7/1
f 169/6/1 170/9/1 171/10/1 172/7/1
f 173/6/1 174/9/1 175/10/1 176/7/1
f 177/6/1 178/9/1 179/10/1 180/7/1
f 181/6/1 182/9/1 183/10/1 184/7/1
f 185/6/1 186/9/1 187/10/1 188/7/1
f 189/6/1 190/9/1 191/10/1 192/7/1
f 193/6/1 194/9/1 195/10/1 196/7/1
f 197/6/1 198/9/1 199/10/1 200/7/1
f 201/5/1 202/6/1 203/7/1 204/8/1
f 205/6/1 206/9/1 207/10/1 208/7/1
f 209/11/1 210/12/1 211/9/1 212/6/1
f 213/11/1 214/12/1 215/9/1 216/6/1
f 217/11/1 218/12/1 219/9/1 220/6/1
f 221/11/1 222/12/1 223/9/1 224/6/1
f 225/11/1 226/12/1 227/9/1 228/6/1
f 229/11/1 230/12/1 231/9/1 232/6/1
f 233/11/1 234/12/1 235/9/1 236/6/1
f 237/11/1 238/12/1 239/9/1 240/6/1
f 241/1/1 242/2/1 243/3/1 244/4/1
f 245/1/1 246/2/1 247/3/1 248/4/1
f 249/1/1 250/2/1 251/3/1 252/4/1
f 253/1/1 254/2/1 255/3/1 256/4/1
f 257/5/1 258/6/1 259/7/1 260/8/1
f 261/5/1 262/6/1 263/7/1 264/8/1
f 265/6/1 266/9/1 267/10/1 268/7/1
f 269/1/1 270/2/1 271/3/1 272/4/1
f 273/1/1 274/2/1 275/3/1 276/4/1
f 277/1/1 278/2/1 279/3/1 280/4/1
f 281/1/1 282/2/1 283/3/1 284/4/1
f 285/1/1 286/2/1 287/3/1 288/4/1
f 289/1/1 290/2/1 291/3/1 292/4/1
f 293/1/1 294/2/1 295/3/1 296/4/1
f 297/5/1 298/6/1 299/7/1 300/8/1
f 301/5/1 302/6/1 303/7/1 304/8/1
f 305/6/1 306/9/1 307/10/1 308/7/1
f 309/1/1 310/2/1 311/3/1 312/4/1
f 313/1/1 314/2/1 315/3/1 316/4/1
f 317/1/1 318/2/1 319/3/1 320/4/1
f 321/1/1 322/2/1 323/3/1 324/4/1
f 325/1/1 326/2/1 327/3/1 328/4/1
f 329/1/1 330/2/1 331/3/1 332/4/1
f 333/1/1 334/2/1 335/3/1 336/4/1
f 337/5/1 338/6/1 339/7/1 340/8/1
f 341/5/1 342/6/1 343/7/1 344/8/1
f 345/6/1 346/9/1 347/10/1 348/7/1
f 349/1/1 350/2/1 351/3/1 352/4/1
f 353/1/1 354/2/1 355/3/1 356/4/1
f 357/1/1 358/2/1 359/3/1 360/4/1
f 361/1/1 362/2/1 363/3/1 364/4/1
f 365/1/1 366/2/1 367/3/1 368/4/1
f 369/1/1 370/2/1 371/3/1 372/4/1
f 373/1/1 374/2/1 375/3/1 376/4/1
f 377/13/1 378/11/1 379/6/1 380/5/1
f 381/5/1 382/6/1 383/7/1 384/8/1
f 385/6/1 386/9/1 387/10/1 388/7/1
f 389/1/1 390/2/1 391/3/1 392/4/1
f 393/1/1 394/2/1 395/3/1 396/4/1
f 397/1/1 398/2/1 399/3/1 400/4/1

