﻿# Tiled2Unity generated file. Do not modify by hand.
# Wavefront file for 'MainVillage_mesh_0011.obj'

# Vertices (Count = 144)
v -8 -8 0
v -9 -8 0
v -9 -7 0
v -8 -7 0
v -10 -8 0
v -11 -8 0
v -11 -7 0
v -10 -7 0
v -11 -8 0
v -12 -8 0
v -12 -7 0
v -11 -7 0
v -12 -8 0
v -13 -8 0
v -13 -7 0
v -12 -7 0
v -13 -8 0
v -14 -8 0
v -14 -7 0
v -13 -7 0
v -14 -8 0
v -15 -8 0
v -15 -7 0
v -14 -7 0
v -15 -8 0
v -16 -8 0
v -16 -7 0
v -15 -7 0
v -7 -9 0
v -8 -9 0
v -8 -8 0
v -7 -8 0
v -8 -9 0
v -9 -9 0
v -9 -8 0
v -8 -8 0
v -9 -9 0
v -10 -9 0
v -10 -8 0
v -9 -8 0
v -10 -9 0
v -11 -9 0
v -11 -8 0
v -10 -8 0
v -11 -9 0
v -12 -9 0
v -12 -8 0
v -11 -8 0
v -12 -9 0
v -13 -9 0
v -13 -8 0
v -12 -8 0
v -13 -9 0
v -14 -9 0
v -14 -8 0
v -13 -8 0
v -14 -9 0
v -15 -9 0
v -15 -8 0
v -14 -8 0
v -15 -9 0
v -16 -9 0
v -16 -8 0
v -15 -8 0
v -7 -10 0
v -8 -10 0
v -8 -9 0
v -7 -9 0
v -8 -10 0
v -9 -10 0
v -9 -9 0
v -8 -9 0
v -9 -10 0
v -10 -10 0
v -10 -9 0
v -9 -9 0
v -7 -11 0
v -8 -11 0
v -8 -10 0
v -7 -10 0
v -8 -11 0
v -9 -11 0
v -9 -10 0
v -8 -10 0
v -9 -11 0
v -10 -11 0
v -10 -10 0
v -9 -10 0
v -7 -12 0
v -8 -12 0
v -8 -11 0
v -7 -11 0
v -8 -12 0
v -9 -12 0
v -9 -11 0
v -8 -11 0
v -9 -12 0
v -10 -12 0
v -10 -11 0
v -9 -11 0
v -7 -13 0
v -8 -13 0
v -8 -12 0
v -7 -12 0
v -8 -13 0
v -9 -13 0
v -9 -12 0
v -8 -12 0
v -7 -14 0
v -8 -14 0
v -8 -13 0
v -7 -13 0
v -8 -14 0
v -9 -14 0
v -9 -13 0
v -8 -13 0
v -9 -14 0
v -10 -14 0
v -10 -13 0
v -9 -13 0
v -7 -15 0
v -8 -15 0
v -8 -14 0
v -7 -14 0
v -8 -15 0
v -9 -15 0
v -9 -14 0
v -8 -14 0
v -9 -15 0
v -10 -15 0
v -10 -14 0
v -9 -14 0
v -7 -16 0
v -8 -16 0
v -8 -15 0
v -7 -15 0
v -8 -16 0
v -9 -16 0
v -9 -15 0
v -8 -15 0
v -9 -16 0
v -10 -16 0
v -10 -15 0
v -9 -15 0

# Texture cooridinates (Count = 51)
vt 0.15 0.8333333
vt 0.175 0.8333333
vt 0.175 0.8611111
vt 0.15 0.8611111
vt 0.15 0.4722222
vt 0.175 0.4722222
vt 0.175 0.5
vt 0.15 0.5
vt 0.175 0.5277778
vt 0.2 0.5277778
vt 0.2 0.5555556
vt 0.175 0.5555556
vt 0.125 0.5277778
vt 0.15 0.5277778
vt 0.15 0.5555556
vt 0.125 0.5555556
vt 0 0.5833334
vt 0.025 0.5833334
vt 0.025 0.6111111
vt 0 0.6111111
vt 0.125 0.5
vt 0.125 0.4444444
vt 0.15 0.4444444
vt 0.125 0.4722222
vt 0.075 0.5833334
vt 0.1 0.5833334
vt 0.1 0.6111111
vt 0.075 0.6111111
vt 0.1 0.8333333
vt 0.125 0.8333333
vt 0.125 0.8611111
vt 0.1 0.8611111
vt 0.225 0.6666666
vt 0.25 0.6666666
vt 0.25 0.6944444
vt 0.225 0.6944444
vt 0.275 0.6666666
vt 0.275 0.6944444
vt 0 0.5555556
vt 0.025 0.5555556
vt 0.225 0.6388889
vt 0.25 0.6388889
vt 0.275 0.6388889
vt 0.05 0.5277778
vt 0.075 0.5277778
vt 0.075 0.5555556
vt 0.05 0.5555556
vt 0.2 0.4722222
vt 0.2 0.5
vt 0.1 0.5277778
vt 0.1 0.5555556

# Normal
vn 0 0 -1

# Mesh description
g MainVillage_mesh_0011

# Faces
f 1/1/1 2/2/1 3/3/1 4/4/1
f 5/5/1 6/6/1 7/7/1 8/8/1
f 9/9/1 10/10/1 11/11/1 12/12/1
f 13/9/1 14/10/1 15/11/1 16/12/1
f 17/9/1 18/10/1 19/11/1 20/12/1
f 21/9/1 22/10/1 23/11/1 24/12/1
f 25/9/1 26/10/1 27/11/1 28/12/1
f 29/13/1 30/14/1 31/15/1 32/16/1
f 33/14/1 34/9/1 35/12/1 36/15/1
f 37/17/1 38/18/1 39/19/1 40/20/1
f 41/21/1 42/8/1 43/14/1 44/13/1
f 45/22/1 46/23/1 47/5/1 48/24/1
f 49/22/1 50/23/1 51/5/1 52/24/1
f 53/22/1 54/23/1 55/5/1 56/24/1
f 57/22/1 58/23/1 59/5/1 60/24/1
f 61/22/1 62/23/1 63/5/1 64/24/1
f 65/21/1 66/8/1 67/14/1 68/13/1
f 69/8/1 70/7/1 71/9/1 72/14/1
f 73/25/1 74/26/1 75/27/1 76/28/1
f 77/29/1 78/30/1 79/31/1 80/32/1
f 81/30/1 82/1/1 83/4/1 84/31/1
f 85/25/1 86/26/1 87/27/1 88/28/1
f 89/33/1 90/34/1 91/35/1 92/36/1
f 93/34/1 94/37/1 95/38/1 96/35/1
f 97/39/1 98/40/1 99/18/1 100/17/1
f 101/41/1 102/42/1 103/34/1 104/33/1
f 105/42/1 106/43/1 107/37/1 108/34/1
f 109/24/1 110/5/1 111/8/1 112/21/1
f 113/24/1 114/5/1 115/8/1 116/21/1
f 117/14/1 118/9/1 119/12/1 120/15/1
f 121/44/1 122/45/1 123/46/1 124/47/1
f 125/44/1 126/45/1 127/46/1 128/47/1
f 129/6/1 130/48/1 131/49/1 132/7/1
f 133/45/1 134/50/1 135/51/1 136/46/1
f 137/44/1 138/45/1 139/46/1 140/47/1
f 141/6/1 142/48/1 143/49/1 144/7/1

