﻿# Tiled2Unity generated file. Do not modify by hand.
# Wavefront file for 'MainVillage_mesh_0004.obj'

# Vertices (Count = 560)
v -3 -1 0
v -4 -1 0
v -4 0 0
v -3 0 0
v -4 -1 0
v -5 -1 0
v -5 0 0
v -4 0 0
v -5 -1 0
v -6 -1 0
v -6 0 0
v -5 0 0
v -6 -1 0
v -7 -1 0
v -7 0 0
v -6 0 0
v -7 -1 0
v -8 -1 0
v -8 0 0
v -7 0 0
v -8 -1 0
v -9 -1 0
v -9 0 0
v -8 0 0
v -9 -1 0
v -10 -1 0
v -10 0 0
v -9 0 0
v -10 -1 0
v -11 -1 0
v -11 0 0
v -10 0 0
v -11 -1 0
v -12 -1 0
v -12 0 0
v -11 0 0
v -12 -1 0
v -13 -1 0
v -13 0 0
v -12 0 0
v -13 -1 0
v -14 -1 0
v -14 0 0
v -13 0 0
v -14 -1 0
v -15 -1 0
v -15 0 0
v -14 0 0
v -15 -1 0
v -16 -1 0
v -16 0 0
v -15 0 0
v -16 -1 0
v -17 -1 0
v -17 0 0
v -16 0 0
v -17 -1 0
v -18 -1 0
v -18 0 0
v -17 0 0
v -18 -1 0
v -19 -1 0
v -19 0 0
v -18 0 0
v 0 -2 0
v -1 -2 0
v -1 -1 0
v 0 -1 0
v -1 -2 0
v -2 -2 0
v -2 -1 0
v -1 -1 0
v -2 -2 0
v -3 -2 0
v -3 -1 0
v -2 -1 0
v -3 -2 0
v -4 -2 0
v -4 -1 0
v -3 -1 0
v -4 -2 0
v -5 -2 0
v -5 -1 0
v -4 -1 0
v -5 -2 0
v -6 -2 0
v -6 -1 0
v -5 -1 0
v -6 -2 0
v -7 -2 0
v -7 -1 0
v -6 -1 0
v -7 -2 0
v -8 -2 0
v -8 -1 0
v -7 -1 0
v -8 -2 0
v -9 -2 0
v -9 -1 0
v -8 -1 0
v -9 -2 0
v -10 -2 0
v -10 -1 0
v -9 -1 0
v -10 -2 0
v -11 -2 0
v -11 -1 0
v -10 -1 0
v -11 -2 0
v -12 -2 0
v -12 -1 0
v -11 -1 0
v -12 -2 0
v -13 -2 0
v -13 -1 0
v -12 -1 0
v -13 -2 0
v -14 -2 0
v -14 -1 0
v -13 -1 0
v -14 -2 0
v -15 -2 0
v -15 -1 0
v -14 -1 0
v -15 -2 0
v -16 -2 0
v -16 -1 0
v -15 -1 0
v -16 -2 0
v -17 -2 0
v -17 -1 0
v -16 -1 0
v -17 -2 0
v -18 -2 0
v -18 -1 0
v -17 -1 0
v -18 -2 0
v -19 -2 0
v -19 -1 0
v -18 -1 0
v 0 -3 0
v -1 -3 0
v -1 -2 0
v 0 -2 0
v -1 -3 0
v -2 -3 0
v -2 -2 0
v -1 -2 0
v -2 -3 0
v -3 -3 0
v -3 -2 0
v -2 -2 0
v -10 -3 0
v -11 -3 0
v -11 -2 0
v -10 -2 0
v -11 -3 0
v -12 -3 0
v -12 -2 0
v -11 -2 0
v -12 -3 0
v -13 -3 0
v -13 -2 0
v -12 -2 0
v -13 -3 0
v -14 -3 0
v -14 -2 0
v -13 -2 0
v -14 -3 0
v -15 -3 0
v -15 -2 0
v -14 -2 0
v -15 -3 0
v -16 -3 0
v -16 -2 0
v -15 -2 0
v -16 -3 0
v -17 -3 0
v -17 -2 0
v -16 -2 0
v -17 -3 0
v -18 -3 0
v -18 -2 0
v -17 -2 0
v -18 -3 0
v -19 -3 0
v -19 -2 0
v -18 -2 0
v 0 -4 0
v -1 -4 0
v -1 -3 0
v 0 -3 0
v -1 -4 0
v -2 -4 0
v -2 -3 0
v -1 -3 0
v -2 -4 0
v -3 -4 0
v -3 -3 0
v -2 -3 0
v -10 -4 0
v -11 -4 0
v -11 -3 0
v -10 -3 0
v -11 -4 0
v -12 -4 0
v -12 -3 0
v -11 -3 0
v -12 -4 0
v -13 -4 0
v -13 -3 0
v -12 -3 0
v -13 -4 0
v -14 -4 0
v -14 -3 0
v -13 -3 0
v -14 -4 0
v -15 -4 0
v -15 -3 0
v -14 -3 0
v -15 -4 0
v -16 -4 0
v -16 -3 0
v -15 -3 0
v -16 -4 0
v -17 -4 0
v -17 -3 0
v -16 -3 0
v -17 -4 0
v -18 -4 0
v -18 -3 0
v -17 -3 0
v -18 -4 0
v -19 -4 0
v -19 -3 0
v -18 -3 0
v 0 -5 0
v -1 -5 0
v -1 -4 0
v 0 -4 0
v -1 -5 0
v -2 -5 0
v -2 -4 0
v -1 -4 0
v -2 -5 0
v -3 -5 0
v -3 -4 0
v -2 -4 0
v -10 -5 0
v -11 -5 0
v -11 -4 0
v -10 -4 0
v -11 -5 0
v -12 -5 0
v -12 -4 0
v -11 -4 0
v -12 -5 0
v -13 -5 0
v -13 -4 0
v -12 -4 0
v -13 -5 0
v -14 -5 0
v -14 -4 0
v -13 -4 0
v -14 -5 0
v -15 -5 0
v -15 -4 0
v -14 -4 0
v -15 -5 0
v -16 -5 0
v -16 -4 0
v -15 -4 0
v -16 -5 0
v -17 -5 0
v -17 -4 0
v -16 -4 0
v -17 -5 0
v -18 -5 0
v -18 -4 0
v -17 -4 0
v -18 -5 0
v -19 -5 0
v -19 -4 0
v -18 -4 0
v 0 -6 0
v -1 -6 0
v -1 -5 0
v 0 -5 0
v -1 -6 0
v -2 -6 0
v -2 -5 0
v -1 -5 0
v -18 -6 0
v -19 -6 0
v -19 -5 0
v -18 -5 0
v 0 -7 0
v -1 -7 0
v -1 -6 0
v 0 -6 0
v -1 -7 0
v -2 -7 0
v -2 -6 0
v -1 -6 0
v -2 -7 0
v -3 -7 0
v -3 -6 0
v -2 -6 0
v -12 -7 0
v -13 -7 0
v -13 -6 0
v -12 -6 0
v -13 -7 0
v -14 -7 0
v -14 -6 0
v -13 -6 0
v -14 -7 0
v -15 -7 0
v -15 -6 0
v -14 -6 0
v -15 -7 0
v -16 -7 0
v -16 -6 0
v -15 -6 0
v -16 -7 0
v -17 -7 0
v -17 -6 0
v -16 -6 0
v -18 -7 0
v -19 -7 0
v -19 -6 0
v -18 -6 0
v 0 -8 0
v -1 -8 0
v -1 -7 0
v 0 -7 0
v -1 -8 0
v -2 -8 0
v -2 -7 0
v -1 -7 0
v -2 -8 0
v -3 -8 0
v -3 -7 0
v -2 -7 0
v -12 -8 0
v -13 -8 0
v -13 -7 0
v -12 -7 0
v -16 -8 0
v -17 -8 0
v -17 -7 0
v -16 -7 0
v -18 -8 0
v -19 -8 0
v -19 -7 0
v -18 -7 0
v 0 -9 0
v -1 -9 0
v -1 -8 0
v 0 -8 0
v -1 -9 0
v -2 -9 0
v -2 -8 0
v -1 -8 0
v -2 -9 0
v -3 -9 0
v -3 -8 0
v -2 -8 0
v -16 -9 0
v -17 -9 0
v -17 -8 0
v -16 -8 0
v -18 -9 0
v -19 -9 0
v -19 -8 0
v -18 -8 0
v 0 -10 0
v -1 -10 0
v -1 -9 0
v 0 -9 0
v -1 -10 0
v -2 -10 0
v -2 -9 0
v -1 -9 0
v -2 -10 0
v -3 -10 0
v -3 -9 0
v -2 -9 0
v -16 -10 0
v -17 -10 0
v -17 -9 0
v -16 -9 0
v -18 -10 0
v -19 -10 0
v -19 -9 0
v -18 -9 0
v 0 -11 0
v -1 -11 0
v -1 -10 0
v 0 -10 0
v -1 -11 0
v -2 -11 0
v -2 -10 0
v -1 -10 0
v -2 -11 0
v -3 -11 0
v -3 -10 0
v -2 -10 0
v -12 -11 0
v -13 -11 0
v -13 -10 0
v -12 -10 0
v -16 -11 0
v -17 -11 0
v -17 -10 0
v -16 -10 0
v -18 -11 0
v -19 -11 0
v -19 -10 0
v -18 -10 0
v 0 -12 0
v -1 -12 0
v -1 -11 0
v 0 -11 0
v -1 -12 0
v -2 -12 0
v -2 -11 0
v -1 -11 0
v -2 -12 0
v -3 -12 0
v -3 -11 0
v -2 -11 0
v -12 -12 0
v -13 -12 0
v -13 -11 0
v -12 -11 0
v -13 -12 0
v -14 -12 0
v -14 -11 0
v -13 -11 0
v -14 -12 0
v -15 -12 0
v -15 -11 0
v -14 -11 0
v -15 -12 0
v -16 -12 0
v -16 -11 0
v -15 -11 0
v -16 -12 0
v -17 -12 0
v -17 -11 0
v -16 -11 0
v -18 -12 0
v -19 -12 0
v -19 -11 0
v -18 -11 0
v 0 -13 0
v -1 -13 0
v -1 -12 0
v 0 -12 0
v -1 -13 0
v -2 -13 0
v -2 -12 0
v -1 -12 0
v -2 -13 0
v -3 -13 0
v -3 -12 0
v -2 -12 0
v -10 -13 0
v -11 -13 0
v -11 -12 0
v -10 -12 0
v -11 -13 0
v -12 -13 0
v -12 -12 0
v -11 -12 0
v -12 -13 0
v -13 -13 0
v -13 -12 0
v -12 -12 0
v -18 -13 0
v -19 -13 0
v -19 -12 0
v -18 -12 0
v -10 -14 0
v -11 -14 0
v -11 -13 0
v -10 -13 0
v -18 -14 0
v -19 -14 0
v -19 -13 0
v -18 -13 0
v 0 -15 0
v -1 -15 0
v -1 -14 0
v 0 -14 0
v -17 -15 0
v -18 -15 0
v -18 -14 0
v -17 -14 0
v -18 -15 0
v -19 -15 0
v -19 -14 0
v -18 -14 0
v 0 -16 0
v -1 -16 0
v -1 -15 0
v 0 -15 0
v -17 -16 0
v -18 -16 0
v -18 -15 0
v -17 -15 0
v -18 -16 0
v -19 -16 0
v -19 -15 0
v -18 -15 0
v 0 -17 0
v -1 -17 0
v -1 -16 0
v 0 -16 0
v 0 -18 0
v -1 -18 0
v -1 -17 0
v 0 -17 0
v -4 -18 0
v -5 -18 0
v -5 -17 0
v -4 -17 0
v -5 -18 0
v -6 -18 0
v -6 -17 0
v -5 -17 0
v -6 -18 0
v -7 -18 0
v -7 -17 0
v -6 -17 0
v -7 -18 0
v -8 -18 0
v -8 -17 0
v -7 -17 0
v -8 -18 0
v -9 -18 0
v -9 -17 0
v -8 -17 0
v -9 -18 0
v -10 -18 0
v -10 -17 0
v -9 -17 0
v -10 -18 0
v -11 -18 0
v -11 -17 0
v -10 -17 0
v -11 -18 0
v -12 -18 0
v -12 -17 0
v -11 -17 0
v -12 -18 0
v -13 -18 0
v -13 -17 0
v -12 -17 0

# Texture cooridinates (Count = 75)
vt 0.15 0.4722222
vt 0.175 0.4722222
vt 0.175 0.5
vt 0.15 0.5
vt 0.075 0.5277778
vt 0.1 0.5277778
vt 0.1 0.5555556
vt 0.075 0.5555556
vt 0.2 0.4722222
vt 0.2 0.5
vt 0.05 0.7777778
vt 0.075 0.7777778
vt 0.075 0.8055556
vt 0.05 0.8055556
vt 0.1 0.7777778
vt 0.1 0.8055556
vt 0.125 0.7777778
vt 0.125 0.8055556
vt 0.125 0.5277778
vt 0.15 0.5277778
vt 0.15 0.5555556
vt 0.125 0.5555556
vt 0.175 0.5277778
vt 0.175 0.5555556
vt 0 0.5833334
vt 0.025 0.5833334
vt 0.025 0.6111111
vt 0 0.6111111
vt 0.125 0.5
vt 0.125 0.4444444
vt 0.15 0.4444444
vt 0.125 0.4722222
vt 0 0.9166667
vt 0.025 0.9166667
vt 0.025 0.9444444
vt 0 0.9444444
vt 0.075 0.5833334
vt 0.1 0.5833334
vt 0.1 0.6111111
vt 0.075 0.6111111
vt 0.1 0.8333333
vt 0.125 0.8333333
vt 0.125 0.8611111
vt 0.1 0.8611111
vt 0.15 0.8333333
vt 0.15 0.8611111
vt 0.225 0.6666666
vt 0.25 0.6666666
vt 0.25 0.6944444
vt 0.225 0.6944444
vt 0.275 0.6666666
vt 0.275 0.6944444
vt 0 0.5555556
vt 0.025 0.5555556
vt 0.05 0.75
vt 0.075 0.75
vt 0.1 0.75
vt 0.125 0.75
vt 0.225 0.6388889
vt 0.25 0.6388889
vt 0.275 0.6388889
vt 0.05 0.5
vt 0.075 0.5
vt 0.05 0.5277778
vt 0.1 0.5
vt 0.05 0.5555556
vt 0.1 0.4722222
vt 0.05 0.4722222
vt 0.075 0.4722222
vt 0.075 0.8333333
vt 0.075 0.8611111
vt 0.175 0.8333333
vt 0.2 0.8333333
vt 0.2 0.8611111
vt 0.175 0.8611111

# Normal
vn 0 0 -1

# Mesh description
g MainVillage_mesh_0004

# Faces
f 1/1/1 2/2/1 3/3/1 4/4/1
f 5/5/1 6/6/1 7/7/1 8/8/1
f 9/5/1 10/6/1 11/7/1 12/8/1
f 13/5/1 14/6/1 15/7/1 16/8/1
f 17/5/1 18/6/1 19/7/1 20/8/1
f 21/5/1 22/6/1 23/7/1 24/8/1
f 25/2/1 26/9/1 27/10/1 28/3/1
f 29/11/1 30/12/1 31/13/1 32/14/1
f 33/12/1 34/15/1 35/16/1 36/13/1
f 37/12/1 38/15/1 39/16/1 40/13/1
f 41/12/1 42/15/1 43/16/1 44/13/1
f 45/12/1 46/15/1 47/16/1 48/13/1
f 49/12/1 50/15/1 51/16/1 52/13/1
f 53/12/1 54/15/1 55/16/1 56/13/1
f 57/15/1 58/17/1 59/18/1 60/16/1
f 61/1/1 62/2/1 63/3/1 64/4/1
f 65/19/1 66/20/1 67/21/1 68/22/1
f 69/20/1 70/23/1 71/24/1 72/21/1
f 73/25/1 74/26/1 75/27/1 76/28/1
f 77/29/1 78/4/1 79/20/1 80/19/1
f 81/30/1 82/31/1 83/1/1 84/32/1
f 85/30/1 86/31/1 87/1/1 88/32/1
f 89/30/1 90/31/1 91/1/1 92/32/1
f 93/30/1 94/31/1 95/1/1 96/32/1
f 97/30/1 98/31/1 99/1/1 100/32/1
f 101/4/1 102/3/1 103/23/1 104/20/1
f 105/11/1 106/12/1 107/13/1 108/14/1
f 109/12/1 110/15/1 111/16/1 112/13/1
f 113/33/1 114/34/1 115/35/1 116/36/1
f 117/12/1 118/15/1 119/16/1 120/13/1
f 121/12/1 122/15/1 123/16/1 124/13/1
f 125/33/1 126/34/1 127/35/1 128/36/1
f 129/12/1 130/15/1 131/16/1 132/13/1
f 133/15/1 134/17/1 135/18/1 136/16/1
f 137/1/1 138/2/1 139/3/1 140/4/1
f 141/29/1 142/4/1 143/20/1 144/19/1
f 145/4/1 146/3/1 147/23/1 148/20/1
f 149/37/1 150/38/1 151/39/1 152/40/1
f 153/11/1 154/12/1 155/13/1 156/14/1
f 157/12/1 158/15/1 159/16/1 160/13/1
f 161/12/1 162/15/1 163/16/1 164/13/1
f 165/12/1 166/15/1 167/16/1 168/13/1
f 169/12/1 170/15/1 171/16/1 172/13/1
f 173/12/1 174/15/1 175/16/1 176/13/1
f 177/12/1 178/15/1 179/16/1 180/13/1
f 181/15/1 182/17/1 183/18/1 184/16/1
f 185/1/1 186/2/1 187/3/1 188/4/1
f 189/41/1 190/42/1 191/43/1 192/44/1
f 193/42/1 194/45/1 195/46/1 196/43/1
f 197/37/1 198/38/1 199/39/1 200/40/1
f 201/11/1 202/12/1 203/13/1 204/14/1
f 205/12/1 206/15/1 207/16/1 208/13/1
f 209/12/1 210/15/1 211/16/1 212/13/1
f 213/33/1 214/34/1 215/35/1 216/36/1
f 217/12/1 218/15/1 219/16/1 220/13/1
f 221/12/1 222/15/1 223/16/1 224/13/1
f 225/33/1 226/34/1 227/35/1 228/36/1
f 229/15/1 230/17/1 231/18/1 232/16/1
f 233/1/1 234/2/1 235/3/1 236/4/1
f 237/47/1 238/48/1 239/49/1 240/50/1
f 241/48/1 242/51/1 243/52/1 244/49/1
f 245/53/1 246/54/1 247/26/1 248/25/1
f 249/55/1 250/56/1 251/12/1 252/11/1
f 253/56/1 254/57/1 255/15/1 256/12/1
f 257/56/1 258/57/1 259/15/1 260/12/1
f 261/56/1 262/57/1 263/15/1 264/12/1
f 265/56/1 266/57/1 267/15/1 268/12/1
f 269/56/1 270/57/1 271/15/1 272/12/1
f 273/56/1 274/57/1 275/15/1 276/12/1
f 277/57/1 278/58/1 279/17/1 280/15/1
f 281/1/1 282/2/1 283/3/1 284/4/1
f 285/59/1 286/60/1 287/48/1 288/47/1
f 289/60/1 290/61/1 291/51/1 292/48/1
f 293/29/1 294/4/1 295/20/1 296/19/1
f 297/32/1 298/1/1 299/4/1 300/29/1
f 301/32/1 302/1/1 303/4/1 304/29/1
f 305/20/1 306/23/1 307/24/1 308/21/1
f 309/62/1 310/63/1 311/5/1 312/64/1
f 313/65/1 314/29/1 315/19/1 316/6/1
f 317/65/1 318/29/1 319/19/1 320/6/1
f 321/65/1 322/29/1 323/19/1 324/6/1
f 325/63/1 326/65/1 327/6/1 328/5/1
f 329/19/1 330/20/1 331/21/1 332/22/1
f 333/64/1 334/5/1 335/8/1 336/66/1
f 337/64/1 338/5/1 339/8/1 340/66/1
f 341/2/1 342/9/1 343/10/1 344/3/1
f 345/67/1 346/32/1 347/29/1 348/65/1
f 349/67/1 350/32/1 351/29/1 352/65/1
f 353/1/1 354/2/1 355/3/1 356/4/1
f 357/5/1 358/6/1 359/7/1 360/8/1
f 361/64/1 362/5/1 363/8/1 364/66/1
f 365/2/1 366/9/1 367/10/1 368/3/1
f 369/67/1 370/32/1 371/29/1 372/65/1
f 373/1/1 374/2/1 375/3/1 376/4/1
f 377/6/1 378/19/1 379/22/1 380/7/1
f 381/64/1 382/5/1 383/8/1 384/66/1
f 385/2/1 386/9/1 387/10/1 388/3/1
f 389/67/1 390/32/1 391/29/1 392/65/1
f 393/1/1 394/2/1 395/3/1 396/4/1
f 397/64/1 398/5/1 399/8/1 400/66/1
f 401/5/1 402/6/1 403/7/1 404/8/1
f 405/2/1 406/9/1 407/10/1 408/3/1
f 409/67/1 410/32/1 411/29/1 412/65/1
f 413/67/1 414/32/1 415/29/1 416/65/1
f 417/1/1 418/2/1 419/3/1 420/4/1
f 421/5/1 422/6/1 423/7/1 424/8/1
f 425/64/1 426/5/1 427/8/1 428/66/1
f 429/2/1 430/9/1 431/10/1 432/3/1
f 433/68/1 434/69/1 435/63/1 436/62/1
f 437/65/1 438/29/1 439/19/1 440/6/1
f 441/65/1 442/29/1 443/19/1 444/6/1
f 445/65/1 446/29/1 447/19/1 448/6/1
f 449/69/1 450/67/1 451/65/1 452/63/1
f 453/1/1 454/2/1 455/3/1 456/4/1
f 457/30/1 458/31/1 459/1/1 460/32/1
f 461/30/1 462/31/1 463/1/1 464/32/1
f 465/4/1 466/3/1 467/23/1 468/20/1
f 469/70/1 470/41/1 471/44/1 472/71/1
f 473/41/1 474/42/1 475/43/1 476/44/1
f 477/42/1 478/45/1 479/46/1 480/43/1
f 481/1/1 482/2/1 483/3/1 484/4/1
f 485/72/1 486/73/1 487/74/1 488/75/1
f 489/29/1 490/4/1 491/20/1 492/19/1
f 493/63/1 494/65/1 495/6/1 496/5/1
f 497/47/1 498/48/1 499/49/1 500/50/1
f 501/48/1 502/51/1 503/52/1 504/49/1
f 505/67/1 506/32/1 507/29/1 508/65/1
f 509/59/1 510/60/1 511/48/1 512/47/1
f 513/60/1 514/61/1 515/51/1 516/48/1
f 517/67/1 518/32/1 519/29/1 520/65/1
f 521/67/1 522/32/1 523/29/1 524/65/1
f 525/62/1 526/63/1 527/5/1 528/64/1
f 529/65/1 530/29/1 531/19/1 532/6/1
f 533/65/1 534/29/1 535/19/1 536/6/1
f 537/65/1 538/29/1 539/19/1 540/6/1
f 541/65/1 542/29/1 543/19/1 544/6/1
f 545/65/1 546/29/1 547/19/1 548/6/1
f 549/65/1 550/29/1 551/19/1 552/6/1
f 553/65/1 554/29/1 555/19/1 556/6/1
f 557/63/1 558/65/1 559/6/1 560/5/1

