﻿# Tiled2Unity generated file. Do not modify by hand.
# Wavefront file for 'MainVillage_mesh_0006.obj'

# Vertices (Count = 72)
v -9 -1 0
v -10 -1 0
v -10 0 0
v -9 0 0
v -10 -1 0
v -11 -1 0
v -11 0 0
v -10 0 0
v -9 -2 0
v -10 -2 0
v -10 -1 0
v -9 -1 0
v -10 -2 0
v -11 -2 0
v -11 -1 0
v -10 -1 0
v -9 -3 0
v -10 -3 0
v -10 -2 0
v -9 -2 0
v -10 -3 0
v -11 -3 0
v -11 -2 0
v -10 -2 0
v -7 -4 0
v -8 -4 0
v -8 -3 0
v -7 -3 0
v -8 -4 0
v -9 -4 0
v -9 -3 0
v -8 -3 0
v -9 -4 0
v -10 -4 0
v -10 -3 0
v -9 -3 0
v -10 -4 0
v -11 -4 0
v -11 -3 0
v -10 -3 0
v -7 -5 0
v -8 -5 0
v -8 -4 0
v -7 -4 0
v -8 -5 0
v -9 -5 0
v -9 -4 0
v -8 -4 0
v -9 -5 0
v -10 -5 0
v -10 -4 0
v -9 -4 0
v -10 -5 0
v -11 -5 0
v -11 -4 0
v -10 -4 0
v -7 -6 0
v -8 -6 0
v -8 -5 0
v -7 -5 0
v -8 -6 0
v -9 -6 0
v -9 -5 0
v -8 -5 0
v -9 -6 0
v -10 -6 0
v -10 -5 0
v -9 -5 0
v -10 -6 0
v -11 -6 0
v -11 -5 0
v -10 -5 0

# Texture cooridinates (Count = 22)
vt 0.15 0.6944444
vt 0.175 0.6944444
vt 0.175 0.7222222
vt 0.15 0.7222222
vt 0.175 0.5833334
vt 0.2 0.5833334
vt 0.2 0.6111111
vt 0.175 0.6111111
vt 0.125 0.6666666
vt 0.15 0.6666666
vt 0.125 0.6944444
vt 0.175 0.6666666
vt 0.125 0.5833334
vt 0.15 0.5833334
vt 0.15 0.6111111
vt 0.125 0.6111111
vt 0.1 0.5555556
vt 0.125 0.5555556
vt 0.1 0.5833334
vt 0.15 0.5555556
vt 0.175 0.5555556
vt 0.2 0.5555556

# Normal
vn 0 0 -1

# Mesh description
g MainVillage_mesh_0006

# Faces
f 1/1/1 2/2/1 3/3/1 4/4/1
f 5/5/1 6/6/1 7/7/1 8/8/1
f 9/1/1 10/2/1 11/3/1 12/4/1
f 13/5/1 14/6/1 15/7/1 16/8/1
f 17/1/1 18/2/1 19/3/1 20/4/1
f 21/5/1 22/6/1 23/7/1 24/8/1
f 25/9/1 26/10/1 27/1/1 28/11/1
f 29/9/1 30/10/1 31/1/1 32/11/1
f 33/10/1 34/12/1 35/2/1 36/1/1
f 37/5/1 38/6/1 39/7/1 40/8/1
f 41/13/1 42/14/1 43/15/1 44/16/1
f 45/13/1 46/14/1 47/15/1 48/16/1
f 49/14/1 50/5/1 51/8/1 52/15/1
f 53/5/1 54/6/1 55/7/1 56/8/1
f 57/17/1 58/18/1 59/13/1 60/19/1
f 61/18/1 62/20/1 63/14/1 64/13/1
f 65/20/1 66/21/1 67/5/1 68/14/1
f 69/21/1 70/22/1 71/6/1 72/5/1

