%YAML 1.1
%TAG !u! tag:unity3d.com,2011:
--- !u!1045 &1
EditorBuildSettings:
  m_ObjectHideFlags: 0
  serializedVersion: 2
  m_Scenes:
  - enabled: 1
    path: Assets/Scenes/MainMenu.unity
    guid: 0121c3a590f762c4b9f3d9f737482595
  - enabled: 1
    path: Assets/Scenes/Demo.unity
    guid: 37ca1be5b9568ca49876a765cafd154f
  - enabled: 1
    path: Assets/Scenes/Imp Dungeon.unity
    guid: 6b6cc1e5f47f2b34f84fbe56f2f92e8d
  m_configObjects: {}
